{
  "annotations": {
    "list": [
      {
        "builtIn": 1,
        "datasource": "-- Grafana --",
        "enable": true,
        "hide": true,
        "iconColor": "rgba(0, 211, 255, 1)",
        "name": "Annotations & Alerts",
        "type": "dashboard"
      }
    ]
  },
  "editable": true,
  "gnetId": null,
  "graphTooltip": 0,
  "id": 2,
  "links": [],
  "panels": [
    {
      "datasource": null,
      "gridPos": {
        "h": 3,
        "w": 24,
        "x": 0,
        "y": 0
      },
      "id": 1,
      "type": "welcome"
    },
    {
      "datasource": null,
      "gridPos": {
        "h": 15,
        "w": 12,
        "x": 0,
        "y": 3
      },
      "id": 3,
      "links": [],
      "options": {
        "folderId": 0,
        "maxItems": 30,
        "query": "",
        "showHeadings": true,
        "showRecentlyViewed": true,
        "showSearch": false,
        "showStarred": true,
        "tags": []
      },
      "pluginVersion": "8.0.3",
      "tags": [],
      "title": "Dashboards",
      "type": "dashlist"
    },
    {
      "datasource": null,
      "gridPos": {
        "h": 15,
        "w": 12,
        "x": 12,
        "y": 3
      },
      "id": 4,
      "links": [],
      "options": {
        "content": "\n# README\n\nTo add new targets to scrape data from, edit the prometheus/prometheus.yml file, and add your target IP addresses into the netdata-scrape section, e.g.\n\n```\n    - targets: ['192.168.123.1:19999','192.168.123.234:19999','172.20.14.21:19999','172.20.14.191:19999', '192.168.1.120:19999','192.168.1.121:19999']\n```\n\nAfter your edits, restart the container using:\n```\ndocker-compose down\nADMIN_USER=admin ADMIN_PASSWORD=admin docker-compose up -d\n```\n\nwhile in your dockprom-srg directory.\n\nAlso see README.md in that same directory for further information.",
        "mode": "markdown"
      },
      "pluginVersion": "8.0.3",
      "type": "text"
    }
  ],
  "schemaVersion": 30,
  "style": "dark",
  "tags": [],
  "templating": {
    "list": []
  },
  "time": {
    "from": "now-6h",
    "to": "now"
  },
  "timepicker": {
    "hidden": true,
    "refresh_intervals": [
      "10s",
      "30s",
      "1m",
      "5m",
      "15m",
      "30m",
      "1h",
      "2h",
      "1d"
    ],
    "time_options": [
      "5m",
      "15m",
      "1h",
      "6h",
      "12h",
      "24h",
      "2d",
      "7d",
      "30d"
    ],
    "type": "timepicker"
  },
  "timezone": "browser",
  "title": "HomePage",
  "uid": "opho5hkMk",
  "version": 2
}